<svg viewBox="0 0 64 64" width="64" height="64">
  <g transform="matrix(0.13058489 0 0 0.13058489 -1.4360887 -1.4232026)">
    <path d="m480.5 15.3-94.4 0c-9.8 0-18.2 7-20.1 16.6l-16.6 88.2-317.9 0C22.8 119.7 7.3 128.8 11.8 146l49.8 179.6c2.5 8.8 10.5 15 19.7 15l251.4 0c9.8 0 18.2-7 20.1-16.6l51.5-267.5 76.4-0.2c11.3 0 20.4-9.1 20.4-20.4C501 24.5 491.8 15.3 480.5 15.3Z"/>
    <path d="m285 374.6c-33 0-59.9 27.4-59.9 61 0 33.6 26.9 61 59.9 61 33 0 59.9-27.4 59.9-61 0-33.6-26.9-61-59.9-61z"/>
    <path d="m126.6 374.6c-33 0-59.9 27.4-59.9 61 0 33.6 26.9 61 59.9 61 33 0 59.9-27.4 59.9-61 0-33.6-26.9-61-59.9-61z"/>
  </g>
</svg>