<svg xmlns:svg="http://www.w3.org/2000/svg" x="0px" y="0px" width="64" height="64" viewBox="0 0 64 64">
<g transform="matrix(0.17868328,0,0,0.17868328,2.9174934e-5,-1.5979995e-4)">
  <g>
    <path d="m 334.143,25.061 -1.025,-1.026 C 307.013,-2.07 267.701,-6.907 236.696,9.513 227.588,0.424 212.784,0.429 203.683,9.531 l -34.176,34.176 c -8.23,8.23 -9.021,21.125 -2.374,30.253 L 73.96,167.132 c -9.129,-6.646 -22.023,-5.855 -30.254,2.374 L 9.53,203.682 c -9.101,9.102 -9.106,23.905 -0.018,33.014 -16.42,31.005 -11.583,70.316 14.521,96.421 l 1.025,1.025 c 26.104,26.104 65.416,30.941 96.422,14.521 9.108,9.089 23.912,9.084 33.014,-0.018 l 34.173,-34.176 c 8.231,-8.229 9.021,-21.125 2.375,-30.253 l 93.174,-93.174 c 9.127,6.647 22.023,5.857 30.252,-2.374 l 34.177,-34.176 c 9.102,-9.101 9.106,-23.904 0.018,-33.012 16.42,-31.002 11.584,-70.316 -14.52,-96.419 z m -156.431,278.451 -34.176,34.176 c -3.069,3.069 -8.045,3.069 -11.115,0 L 107.413,312.68 c -3.068,-3.068 -3.068,-8.046 0.001,-11.114 l 9.253,-9.252 -50.805,-50.805 -9.252,9.252 c -3.069,3.069 -8.046,3.07 -11.115,0.001 L 20.487,225.754 c -3.068,-3.068 -3.068,-8.045 0,-11.113 l 34.177,-34.178 c 3.069,-3.068 8.045,-3.068 11.114,0 l 25.008,25.008 c 3.068,3.069 3.068,8.046 0,11.114 l -9.34,9.339 8.386,8.387 c 9.521,-7.315 23.217,-6.621 31.937,2.097 8.717,8.718 9.412,22.415 2.096,31.935 l 8.387,8.387 9.34,-9.34 c 3.068,-3.069 8.045,-3.068 11.113,0 l 25.008,25.008 c 3.068,3.069 3.069,8.044 -0.001,11.114 z m 159.976,-159.977 -34.176,34.177 c -3.068,3.069 -8.045,3.069 -11.114,0 l -25.009,-25.008 c -3.067,-3.069 -3.067,-8.045 0,-11.114 l 9.34,-9.339 -8.387,-8.386 c -9.52,7.315 -23.215,6.621 -31.934,-2.097 -8.719,-8.72 -9.414,-22.415 -2.099,-31.936 l -8.387,-8.386 -9.34,9.339 c -3.067,3.07 -8.044,3.069 -11.113,0 L 180.461,65.778 c -3.067,-3.069 -3.068,-8.045 0,-11.115 l 34.178,-34.176 c 3.068,-3.069 8.045,-3.069 11.113,0 l 25.008,25.007 c 3.068,3.069 3.068,8.046 0,11.115 l -9.253,9.252 50.804,50.804 9.254,-9.252 c 3.068,-3.069 8.046,-3.069 11.113,0 l 25.008,25.007 c 3.072,3.07 3.072,8.046 0.002,11.115 z"/>
    <path d="m 259.353,91.337 c -1.069,-1.07 -2.627,-1.487 -4.088,-1.097 l -10.229,2.741 c -1.46,0.393 -2.601,1.532 -2.994,2.992 l -2.74,10.229 c -0.391,1.461 0.027,3.019 1.099,4.088 l 7.487,7.488 c 1.068,1.068 2.625,1.485 4.086,1.095 l 10.229,-2.74 c 1.46,-0.393 2.602,-1.532 2.992,-2.993 l 2.741,-10.228 c 0.391,-1.461 -0.026,-3.019 -1.096,-4.087 l -7.487,-7.488 z m -1.703,17.253 -5.508,1.476 -4.03,-4.032 1.476,-5.508 5.508,-1.477 4.031,4.032 -1.477,5.509 z"/>
    <path d="m 110.291,240.399 c -1.068,-1.07 -2.627,-1.487 -4.088,-1.097 l -10.228,2.741 c -1.46,0.394 -2.601,1.533 -2.993,2.992 l -2.74,10.229 c -0.391,1.462 0.027,3.02 1.096,4.089 l 7.488,7.487 c 1.068,1.069 2.625,1.486 4.088,1.097 l 10.228,-2.741 c 1.46,-0.394 2.601,-1.533 2.993,-2.993 l 2.74,-10.228 c 0.391,-1.462 -0.025,-3.02 -1.096,-4.088 l -7.488,-7.488 z m -1.701,17.252 -5.507,1.476 -4.033,-4.032 1.477,-5.508 5.508,-1.476 4.032,4.032 -1.477,5.508 z"/>
  </g>
</g>
</svg>