<?xml version="1.0" encoding="UTF-8" standalone="no"?>
<!-- Created with Inkscape (http://www.inkscape.org/) -->

<svg
   xmlns:osb="http://www.openswatchbook.org/uri/2009/osb"
   xmlns:dc="http://purl.org/dc/elements/1.1/"
   xmlns:cc="http://creativecommons.org/ns#"
   xmlns:rdf="http://www.w3.org/1999/02/22-rdf-syntax-ns#"
   xmlns:svg="http://www.w3.org/2000/svg"
   xmlns="http://www.w3.org/2000/svg"
   xmlns:sodipodi="http://sodipodi.sourceforge.net/DTD/sodipodi-0.dtd"
   xmlns:inkscape="http://www.inkscape.org/namespaces/inkscape"
   width="126mm"
   height="126mm"
   viewBox="0 0 126 126"
   version="1.1"
   id="svg8"
   inkscape:version="0.92.2 5c3e80d, 2017-08-06"
   sodipodi:docname="icon02.svg">
  <sodipodi:namedview
     id="base"
     pagecolor="#ffffff"
     bordercolor="#666666"
     borderopacity="1.0"
     inkscape:pageopacity="0.0"
     inkscape:pageshadow="2"
     inkscape:zoom="0.12374369"
     inkscape:cx="-1831.4826"
     inkscape:cy="-1226.3122"
     inkscape:document-units="mm"
     inkscape:current-layer="layer1"
     showgrid="false"
     inkscape:window-width="1362"
     inkscape:window-height="723"
     inkscape:window-x="4"
     inkscape:window-y="1"
     inkscape:window-maximized="1"
     fit-margin-top="0"
     fit-margin-left="0"
     fit-margin-right="0"
     fit-margin-bottom="0" />
  <defs
     id="defs2">
    <linearGradient
       id="linearGradient5826"
       osb:paint="solid">
      <stop
         style="stop-color:#2d2b18;stop-opacity:1;"
         offset="0"
         id="stop5824" />
    </linearGradient>
    <clipPath
       clipPathUnits="userSpaceOnUse"
       id="clipPath9738">
      <path
         style="opacity:1;fill:none;fill-opacity:1;stroke:#2d2b18;stroke-width:1;stroke-linejoin:round;stroke-miterlimit:4;stroke-dasharray:none;stroke-opacity:1"
         d="m -303.14343,-449.64906 a 48.947919,48.947919 0 0 1 -49.74027,48.14254 48.947919,48.947919 0 0 1 -48.14255,-49.74024 48.947919,48.947919 0 0 1 49.74025,-48.14255 48.947919,48.947919 0 0 1 48.14257,49.74025 z"
         id="path9740"
         inkscape:connector-curvature="0" />
    </clipPath>
    <clipPath
       clipPathUnits="userSpaceOnUse"
       id="clipPath13315">
      <path
         style="opacity:1;fill:none;fill-opacity:1;stroke:#2d2b18;stroke-width:1;stroke-linejoin:round;stroke-miterlimit:4;stroke-dasharray:none;stroke-opacity:1"
         d="m 210.91071,-426.44643 a 62.744046,62.744046 0 0 1 -62.74405,62.74406 62.744046,62.744046 0 0 1 -62.744045,-62.74406 62.744046,62.744046 0 0 1 62.744045,-62.74403 62.744046,62.744046 0 0 1 62.74405,62.74403 z"
         id="path13317"
         inkscape:connector-curvature="0" />
    </clipPath>
  </defs>
  <metadata
     id="metadata5">
    <rdf:RDF>
      <cc:Work
         rdf:about="">
        <dc:format>image/svg+xml</dc:format>
        <dc:type
           rdf:resource="http://purl.org/dc/dcmitype/StillImage" />
        <dc:title></dc:title>
      </cc:Work>
    </rdf:RDF>
  </metadata>
  <g
     id="layer1"
     inkscape:groupmode="layer"
     inkscape:label="Layer 1"
     style="opacity:0.79000005"
     transform="translate(-186.72023,330.9524)">
    <g
       id="g13408"
       transform="translate(101.55357,158.49401)"
       clip-path="url(#clipPath13315)"
       inkscape:export-filename="/Users/katrina/Pictures/icon01.png"
       inkscape:export-xdpi="96.5494"
       inkscape:export-ydpi="96.5494">
      <g
         id="g13406"
         transform="translate(267.41112,21.862753)">
        <path
           inkscape:connector-curvature="0"
           id="path13392"
           d="m -219.22209,-391.25606 0.65066,-115.29516 99.52322,58.21107 z"
           inkscape:transform-center-y="-0.40900709"
           inkscape:transform-center-x="50.324324"
           style="opacity:1;fill:#8bc34a;fill-opacity:1;stroke:none;stroke-width:5.38099957;stroke-linejoin:round;stroke-miterlimit:4;stroke-dasharray:none;stroke-opacity:1" />
        <path
           inkscape:connector-curvature="0"
           id="path13394"
           d="m -19.730803,-505.96 0.260144,115.29668 -99.979941,-57.42304 z"
           inkscape:transform-center-y="-0.0214614"
           inkscape:transform-center-x="-49.765939"
           style="opacity:1;fill:#e53935;fill-opacity:1;stroke:none;stroke-width:5.38099957;stroke-linejoin:round;stroke-miterlimit:4;stroke-dasharray:none;stroke-opacity:1" />
        <g
           inkscape:transform-center-y="57.473851"
           inkscape:transform-center-x="-49.703165"
           transform="rotate(-59.871582,-335.98909,-772.97934)"
           id="g13398"
           style="fill:#f06292;fill-opacity:1">
          <path
             inkscape:connector-curvature="0"
             id="path13396"
             d="m -507.99397,-307.13809 -99.85012,-57.6485 99.85012,-57.6485 z"
             inkscape:transform-center-y="57.333326"
             inkscape:transform-center-x="50.010526"
             style="opacity:1;fill:#f06292;fill-opacity:1;stroke:none;stroke-width:5.38099957;stroke-linejoin:round;stroke-miterlimit:4;stroke-dasharray:none;stroke-opacity:1" />
        </g>
        <path
           inkscape:connector-curvature="0"
           id="path13400"
           d="m -119.56691,-333.03038 -99.57873,-58.11605 100.11934,-57.17968 z"
           inkscape:transform-center-y="56.577839"
           inkscape:transform-center-x="49.824852"
           style="opacity:1;fill:#fdd835;fill-opacity:1;stroke:none;stroke-width:5.38099957;stroke-linejoin:round;stroke-miterlimit:4;stroke-dasharray:none;stroke-opacity:1" />
        <path
           inkscape:connector-curvature="0"
           id="path13402"
           d="m -119.04258,-448.35509 -0.14857,-115.29689 99.92432,57.51979 z"
           inkscape:transform-center-y="-57.671508"
           inkscape:transform-center-x="-49.721945"
           style="opacity:1;fill:#9c27b0;fill-opacity:1;stroke:none;stroke-width:5.38099957;stroke-linejoin:round;stroke-miterlimit:4;stroke-dasharray:none;stroke-opacity:1" />
        <path
           inkscape:connector-curvature="0"
           id="path13404"
           d="m -118.79638,-563.65527 -0.24395,115.29673 -99.72793,-57.85962 z"
           inkscape:transform-center-y="-57.278426"
           inkscape:transform-center-x="49.299781"
           style="opacity:1;fill:#26c6df;fill-opacity:1;stroke:none;stroke-width:5.38099957;stroke-linejoin:round;stroke-miterlimit:4;stroke-dasharray:none;stroke-opacity:1" />
      </g>
    </g>
  </g>
</svg>
